{
    "KPlugin": {
        "Authors": [
            {
                "Email": "mehrdad.momeny@gmail.com",
                "Name": "Mehrdad Momeny",
                "Name[ca@valencia]": "Mehrdad Momeny",
                "Name[ca]": "Mehrdad Momeny",
                "Name[en_GB]": "Mehrdad Momeny",
                "Name[es]": "Mehrdad Momeny",
                "Name[fr]": "Mehrdad Momeny",
                "Name[ia]": "Mehrdad Momeny",
                "Name[it]": "Mehrdad Momeny",
                "Name[ka]": "Mehrdad Momeny",
                "Name[nl]": "Mehrdad Momeny",
                "Name[pl]": "Mehrdad Momeny",
                "Name[pt]": "Mehrdad Momeny",
                "Name[sl]": "Mehrdad Momeny",
                "Name[sv]": "Mehrdad Momeny",
                "Name[tr]": "Mehrdad Momeny",
                "Name[uk]": "Mehrdad Momeny",
                "Name[x-test]": "xxMehrdad Momenyxx"
            }
        ],
        "Category": "Plugins",
        "Description": "Filtering unwanted posts",
        "Description[ca@valencia]": "S'estan filtrant els missatges no desitjats",
        "Description[ca]": "S'estan filtrant els missatges no desitjats",
        "Description[en_GB]": "Filtering unwanted posts",
        "Description[es]": "Filtrando posts no deseados",
        "Description[fr]": "Filtrage des messages non sollicités",
        "Description[it]": "Filtraggio dei messaggi indesiderati",
        "Description[ka]": "არასასურველი პოსტების გაფილტვრა",
        "Description[nl]": "Ongewenst geposte berichten filteren",
        "Description[pt]": "A filtrar as publicações indesejadas",
        "Description[sl]": "Filtriraj nezaželene objave",
        "Description[sv]": "Filtrerar oönskade inlägg",
        "Description[tr]": "İstenmeyen Gönderileri Süz",
        "Description[uk]": "Вилучення небажаних дописів",
        "Description[x-test]": "xxFiltering unwanted postsxx",
        "EnabledByDefault": true,
        "Icon": "view-filter",
        "Id": "choqok_filter",
        "License": "GPL",
        "Name": "Filter posts",
        "Name[ca@valencia]": "Filtra els missatges",
        "Name[ca]": "Filtra els missatges",
        "Name[cs]": "Filtrovat příspěvky",
        "Name[en_GB]": "Filter posts",
        "Name[es]": "Filtrar posts",
        "Name[fr]": "Filtrer les messages",
        "Name[it]": "Filtra messaggi",
        "Name[ka]": "პოსტების გაფილტვრა",
        "Name[nl]": "Geposte berichten filteren",
        "Name[pl]": "Filtruj wiadomości",
        "Name[pt]": "Filtrar as publicações",
        "Name[sl]": "Filtriraj objave",
        "Name[sv]": "Filtrera inlägg",
        "Name[tr]": "Gönderileri Süz",
        "Name[uk]": "Фільтрування дописів",
        "Name[x-test]": "xxFilter postsxx",
        "Version": "0.5",
        "Website": "https://choqok.kde.org"
    }
}
