{
    "KPlugin": {
        "Description": "Sets status of your instant messenger as your status in micro-blog.",
        "Description[ca@valencia]": "Establix l'estat del vostre missatger instantani com a estat en el vostre microblog.",
        "Description[ca]": "Estableix l'estat del vostre missatger instantani com a estat en el vostre microblog.",
        "Description[en_GB]": "Sets status of your instant messenger as your status in micro-blog.",
        "Description[es]": "Establecer el estado de su aplicación de mensajería como el estado de su micro-blog.",
        "Description[fr]": "Définit l'état de votre logiciel de messagerie instantanée comme votre état dans un micro-blog.",
        "Description[it]": "Imposta lo stato del programma di messaggistica istantanea come il tuo stato nel microblog.",
        "Description[ka]": "თქვენი მესინჯერის სტატუსის მიკრობლოგის სტატუსზე დაყენება.",
        "Description[nl]": "Uw status van uw instant-messenger instellen als uw status in de micro-blog.",
        "Description[pt]": "Define o estado das suas mensagens instantâneas como o seu estado no micro-blog.",
        "Description[sl]": "Nastavi stanje vašega takojšnjega sporočila kot vaš status v mikro blogu.",
        "Description[sv]": " Anger status för direktmeddelanden som din status i mikroblogg.",
        "Description[tr]": "Anlık iletileşme programınızdaki durumu, mikro blog'unuzdaki durumunuz olarak ayarlar.",
        "Description[uk]": "Встановлення у вашому мікроблозі стану, тотожного до стану у програмі для миттєвого обміну повідомленнями.",
        "Description[x-test]": "xxSets status of your instant messenger as your status in micro-blog.xx",
        "Icon": "kaboodle",
        "Name": "IMStatus",
        "Name[ca@valencia]": "IMStatus",
        "Name[ca]": "IMStatus",
        "Name[cs]": "IMStatus",
        "Name[en_GB]": "IMStatus",
        "Name[es]": "IMStatus",
        "Name[fr]": "IMStatus",
        "Name[it]": "Stato IM",
        "Name[ka]": "IMStatus",
        "Name[nl]": "IMStatus",
        "Name[pt]": "Estado das MI's",
        "Name[sl]": "IMStatus",
        "Name[sv]": "Meddelandestatus",
        "Name[tr]": "IMStatus",
        "Name[uk]": "Стан у мережі МП",
        "Name[x-test]": "xxIMStatusxx"
    }
}
