{
    "KPlugin": {
        "Authors": [
            {
                "Email": "eugene.shalygin@gmail.com",
                "Name": "Eugene Shalygin",
                "Name[ca@valencia]": "Eugene Shalygin",
                "Name[ca]": "Eugene Shalygin",
                "Name[en_GB]": "Eugene Shalygin",
                "Name[es]": "Eugene Shalygin",
                "Name[fr]": "Eugene Shalygin",
                "Name[it]": "Eugene Shalygin",
                "Name[ka]": "Eugene Shalygin",
                "Name[nl]": "Eugene Shalygin",
                "Name[pl]": "Eugene Shalygin",
                "Name[pt]": "Eugene Shalygin",
                "Name[sl]": "Eugene Shalygin",
                "Name[sv]": "Eugene Shalygin",
                "Name[tr]": "Eugene Shalygin",
                "Name[uk]": "Eugene Shalygin",
                "Name[x-test]": "xxEugene Shalyginxx"
            }
        ],
        "Category": "Plugins",
        "Description": "Extract the full URL using longurl.org service and show it as a tooltip",
        "Description[ca@valencia]": "Extrau l'URL complet utilitzant el servei longurl.org i el mostra com a un consell",
        "Description[ca]": "Extreu l'URL complet usant el servei longurl.org i el mostra com a un consell",
        "Description[en_GB]": "Extract the full URL using longurl.org service and show it as a tooltip",
        "Description[es]": "Extraer la URL completa usando el servicio longurl.org y mostrarlo como descripción emergente",
        "Description[fr]": "Extraire l'URL complète à l'aide du service « longurl.org » et l'afficher comme infobulle",
        "Description[it]": "Estrai l'URL completo con il servizio longurl.org e mostralo come suggerimento",
        "Description[ka]": "სრული ბმულის გამოღება longurl.org-ით და მისი მინიშნებად ჩვენება",
        "Description[nl]": "Extraheer de volledige URL met de service longurl.org en toon deze als een tekstballon",
        "Description[pt]": "Extrai o URL completo com o serviço longurl.org e mostra-o como uma dica",
        "Description[sl]": "Izvleci celoten URL s storitvijo longurl.org in ga pokaži kot orodni namig",
        "Description[sv]": "Extrahera den fullständiga webbadressen med användning av tjänsten longurl.org, och visa den som ett verktygstips",
        "Description[tr]": "Tam URL'yi longurl.org kullanarak çıkar ve bir araç ipucu olarak göster",
        "Description[uk]": "Визначає повну форму запису адреси за допомогою longurl.org і показує її на панелі підказки",
        "Description[x-test]": "xxExtract the full URL using longurl.org service and show it as a tooltipxx",
        "EnabledByDefault": true,
        "Icon": "document-preview",
        "Id": "choqok_longurl",
        "License": "GPL",
        "Name": "Expand URLs via longurl.org",
        "Name[ca@valencia]": "Expandix els URL via longurl.org",
        "Name[ca]": "Expandeix els URL via longurl.org",
        "Name[cs]": "Rozbalit URL pomocí longurl.org",
        "Name[en_GB]": "Expand URLs via longurl.org",
        "Name[es]": "Expandir URLs con longurl.org",
        "Name[fr]": "Étendre les URL grâce à « longurl.org »",
        "Name[it]": "Espandi URL con longurl.org",
        "Name[ka]": "URL-ების დამოკლება longurl.org-ით",
        "Name[nl]": "Expandeer URL's via longurl.org",
        "Name[pl]": "Rozwiń adresy URL poprzez longurl.org",
        "Name[pt]": "Expansão de URL's com o longurl.org",
        "Name[sl]": "Razširi URLs prek longurl.org",
        "Name[sv]": "Expandera webbadresser via longurl.org",
        "Name[tr]": "longurl.org ile URL'leri Genişlet",
        "Name[uk]": "Розгортання адрес за допомогою longurl.org",
        "Name[x-test]": "xxExpand URLs via longurl.orgxx",
        "Version": "0.1",
        "Website": "https://choqok.kde.org"
    }
}
